                      ,-,-      
                     / / |      
   ,-'             _/ / /       
  (-_          _,-' `Z_/        
   "#:      ,-'_,-.    \  _     
    #'    _(_-'_()\     \" |    
  ,--_,--'                 |    
 / ""                      L-'\ 
 \,--^---v--v-._        /   \ | 
   \_________________,-'      | 
                    \           
                     \          
                      \     
